0 5 0 5
12 10
1 0 0 
2 6 6 4 0 4 1
0 1 1 1 1 0 0 0 0 0 0 0
0 1 2 1 1 0 0 0 0 0 0 0
0 1 1 1 0 0 0 0 0 0 0 0
0 1 0 0 0 1 1 1 1 1 1 0
0 1 0 0 0 1 1 0 0 1 1 0
1 1 1 1 1 1 1 0 0 1 1 1
0 0 0 0 0 1 4 0 0 0 0 1
0 0 0 0 0 1 1 1 1 0 0 1 
0 0 0 0 0 1 1 1 1 1 1 1
0 0 0 0 0 0 0 0 1 1 1 0
