2 2 2 2
15 10
1 0 1
2 11 7 8 9 9 9 3 0 4 0
11 5 12 9 14 6
0 1 1 1 1 1 1 0 0 0 0 0 0 0 0 
0 1 1 0 0 1 1 1 0 0 0 0 0 0 0
3 3 1 0 0 1 1 1 1 0 0 0 0 0 0
3 3 0 0 0 0 0 1 1 1 0 0 0 0 0
3 3 0 0 0 0 0 0 1 1 1 0 0 0 0
3 1 1 1 0 0 0 0 0 1 1 6 0 0 0
0 1 2 1 0 0 0 0 0 0 1 1 1 1 1 
0 1 1 1 1 1 1 0 0 0 1 4 1 1 1
0 0 1 0 0 1 1 0 0 0 1 1 1 0 0
0 0 1 0 0 1 1 1 1 1 1 1 1 0 0